{
  "type": "arcompu:assembly_table_recipe",
  "pattern": [
    "ERE",
    "RWR",
    "ERE"
  ],
  "key": {
    "R": {
      "item": "minecraft:redstone"
    },
    "W": {
      "item": "arcompu:empty_casing"
    },
    "E": {
      "item": "minecraft:ender_pearl"
    }
  },
  "vakType": "arcompu:vak_fip",
  "vakAmount": 1600,
  "result": {
    "item": "arcompu:system_core"
  }
}
