{
  "parent": "block/block",
  "textures": {
    "particle": "#all"
  },
  "elements": [
    {
      "from": [0, 0, 0],
      "to": [16, 1, 16],
      "faces": {
        "down": { "texture": "#all", "cullface": "down" },
        "up": { "texture": "#all" },
        "east": { "texture": "#all", "cullface": "east" },
        "west": { "texture": "#all", "cullface": "west" },
        "north": { "texture": "#all", "cullface": "north" },
        "south": { "texture": "#all", "cullface": "south" }
      }
    },
    {
      "from": [0, 15, 0],
      "to": [16, 16, 16],
      "faces": {
        "down": { "texture": "#all" },
        "up": { "texture": "#all", "cullface": "up" },
        "east": { "texture": "#all", "cullface": "east" },
        "west": { "texture": "#all", "cullface": "west" },
        "north": { "texture": "#all", "cullface": "north" },
        "south": { "texture": "#all", "cullface": "south" }
      }
    },
    {
      "from": [0, 0, 15],
      "to": [16, 16, 16],
      "faces": {
        "down": { "texture": "#all", "cullface": "down" },
        "up": { "texture": "#all", "cullface": "up" },
        "east": { "texture": "#all", "cullface": "east" },
        "west": { "texture": "#all", "cullface": "west" },
        "north": { "texture": "#all" },
        "south": { "texture": "#all", "cullface": "south" }
      }
    },
    {
      "from": [0, 0, 0],
      "to": [1, 16, 16],
      "faces": {
        "down": { "texture": "#all", "cullface": "down" },
        "up": { "texture": "#all", "cullface": "up" },
        "east": { "texture": "#all" },
        "west": { "texture": "#all", "cullface": "west" },
        "north": { "texture": "#all", "cullface": "north" },
        "south": { "texture": "#all", "cullface": "south" }
      }
    },
    {
      "from": [15, 0, 0],
      "to": [16, 16, 16],
      "faces": {
        "down": { "texture": "#all", "cullface": "down" },
        "up": { "texture": "#all", "cullface": "up" },
        "east": { "texture": "#all", "cullface": "east" },
        "west": { "texture": "#all" },
        "north": { "texture": "#all", "cullface": "north" },
        "south": { "texture": "#all", "cullface": "south" }
      }
    }
  ]
}
